{
    "$schema": "https://docs.rome.tools/schemas/12.1.2/schema.json",
    "organizeImports": {
        "enabled": false
    },
    "formatter": {
        "enabled": true,
        "formatWithErrors": false,
        "indentStyle": "space",
        "indentSize": 4,
        "lineWidth": 100,
        "ignore": []
    },
    "linter": {
        "enabled": true,
        "rules": {
            "recommended": true
        }
    }
}
