<svg
    viewBox="0 0 24 24"
    xmlns="http://www.w3.org/2000/svg"
    fill="none"
    transform="rotate(180)"
  >
    <path
        stroke="#000000"
        stroke-linecap="round"
        stroke-linejoin="round"
        stroke-width="2"
        d="M9 8c-1.667.667-5.4 2.7-7 5.5m9.5-2.5C9.167 12.333 4 16.4 2 22m10.5-7.5c-1.167 1.167-3.8 4.1-5 6.5m7.174-14.55.673-3.285 2.225 2.51 3.027-.294-1.768 3.062 1.743 2.639-3.286-.673-2.51 2.225.19-3.156-3.062-1.768 2.768-1.26z"
    />
</svg>
